0,john,21,52000
1,paul,21,50000
2,george,20,30000
3,ringo,24,25000
4,mick,24,40000
5,keith,24,44000
6,brian,24,66000
7,charlie,20,52000
8,jim,20,20000
9,ray,20,34000
10,robby,20,32000
11,john,21,56000
